…
``` r
base_url = "https://www.amazon.com/product-reviews/B00005JNBQ/ref=cm_cr_arp_d_viewopt_rvwer?ie=UTF8&reviewerType=avp_only_reviews&sortBy=recent&pageNumber="

urls = str_c(base_url, 1:5)

bind_rows(
  get_page_reviews(urls[1]),
  get_page_reviews(urls[2]),
  get_page_reviews(urls[3]),
  get_page_reviews(urls[4]),
  get_page_reviews(urls[5]))
```

    ## # A tibble: 50 × 3
    ##    title                                                 stars   text           
    ##    <chr>                                                 <chr>   <chr>          
    ##  1 this film is so good!                                 5.0 ou… "\n  VOTE FOR …
    ##  2 Good movie                                            5.0 ou… "\n  Weird sto…
    ##  3 I Just everyone to know this....                      5.0 ou… "\n  VOTE FOR …
    ##  4 the cobweb in his hair during the bike ramp scene lol 5.0 ou… "\n  5 stars f…
    ##  5 Best quirky movie ever                                5.0 ou… "\n  You all k…
    ##  6 Classic Film                                          5.0 ou… "\n  Had to or…
    ##  7 hehehehe                                              5.0 ou… "\n  goodjobbo…
    ##  8 Painful                                               1.0 ou… "\n  I think I…
    ##  9 GRAND                                                 5.0 ou… "\n  GRAND\n"  
    ## 10 Hello, 90s                                            5.0 ou… "\n  So nostal…
    ## # … with 40 more rows
…
